…
unemployment
```

    ## # A tibble: 816 × 3
    ##     year month     unemployment_rate
    ##    <int> <chr>                 <dbl>
    ##  1  1948 January                 3.4
    ##  2  1948 February                3.8
    ##  3  1948 March                   4  
    ##  4  1948 April                   3.9
    ##  5  1948 May                     3.5
    ##  6  1948 June                    3.6
    ##  7  1948 July                    3.6
    ##  8  1948 August                  3.9
    ##  9  1948 September               3.8
    ## 10  1948 October                 3.7
    ## # … with 806 more rows
…
